…
\###Who is the most commonly featured artist in the collection? Do you
know them? Any guess as to why the university has so many pieces from
them?

Emma Gillies. I am not familiar with her work. I’m guessing alumna? Or
local artist?

``` r
uoe_art_v2 %>% 
  count(artist) %>% 
  arrange(desc(n))
```

    ## # A tibble: 1,103 × 2
    ##    artist               n
    ##    <chr>            <int>
    ##  1 Unknown            352
    ##  2 Emma Gillies       144
    ##  3 <NA>               113
    ##  4 John Bellany        20
    ##  5 Ann F Ward          19
    ##  6 Zygmunt Bukowski    17
    ##  7 Boris Bućan         16
    ##  8 Gordon Bryce        16
    ##  9 Marjorie Wallace    16
    ## 10 William Gillon      15
    ## # … with 1,093 more rows
…
